%TF.GenerationSoftware,KiCad,Pcbnew,8.0.1+b2*%
%TF.CreationDate,2024-04-29T10:10:26+02:00*%
%TF.ProjectId,qd-lfg,71642d6c-6667-42e6-9b69-6361645f7063,rev?*%
%TF.SameCoordinates,Original*%
%TF.FileFunction,Profile,NP*%
%FSLAX46Y46*%
G04 Gerber Fmt 4.6, Leading zero omitted, Abs format (unit mm)*
G04 Created by KiCad (PCBNEW 8.0.1+b2) date 2024-04-29 10:10:26*
%MOMM*%
%LPD*%
G01*
G04 APERTURE LIST*
%TA.AperFunction,Profile*%
%ADD10C,0.050000*%
%TD*%
G04 APERTURE END LIST*
D10*
X71120000Y-132080000D02*
X71120000Y-76200000D01*
X168148000Y-132080000D02*
X71120000Y-132080000D01*
X168148000Y-76200000D02*
X168148000Y-132080000D01*
X71120000Y-76200000D02*
X168148000Y-76200000D01*
M02*
