%TF.GenerationSoftware,KiCad,Pcbnew,8.0.1+b2*%
%TF.CreationDate,2024-04-29T10:10:25+02:00*%
%TF.ProjectId,qd-lfg,71642d6c-6667-42e6-9b69-6361645f7063,rev?*%
%TF.SameCoordinates,Original*%
%TF.FileFunction,Paste,Bot*%
%TF.FilePolarity,Positive*%
%FSLAX46Y46*%
G04 Gerber Fmt 4.6, Leading zero omitted, Abs format (unit mm)*
G04 Created by KiCad (PCBNEW 8.0.1+b2) date 2024-04-29 10:10:25*
%MOMM*%
%LPD*%
G01*
G04 APERTURE LIST*
G04 Aperture macros list*
%AMRoundRect*
0 Rectangle with rounded corners*
0 $1 Rounding radius*
0 $2 $3 $4 $5 $6 $7 $8 $9 X,Y pos of 4 corners*
0 Add a 4 corners polygon primitive as box body*
4,1,4,$2,$3,$4,$5,$6,$7,$8,$9,$2,$3,0*
0 Add four circle primitives for the rounded corners*
1,1,$1+$1,$2,$3*
1,1,$1+$1,$4,$5*
1,1,$1+$1,$6,$7*
1,1,$1+$1,$8,$9*
0 Add four rect primitives between the rounded corners*
20,1,$1+$1,$2,$3,$4,$5,0*
20,1,$1+$1,$4,$5,$6,$7,0*
20,1,$1+$1,$6,$7,$8,$9,0*
20,1,$1+$1,$8,$9,$2,$3,0*%
G04 Aperture macros list end*
%ADD10RoundRect,0.150000X0.825000X0.150000X-0.825000X0.150000X-0.825000X-0.150000X0.825000X-0.150000X0*%
%ADD11RoundRect,0.250000X0.450000X-0.350000X0.450000X0.350000X-0.450000X0.350000X-0.450000X-0.350000X0*%
%ADD12RoundRect,0.250000X0.350000X0.450000X-0.350000X0.450000X-0.350000X-0.450000X0.350000X-0.450000X0*%
%ADD13RoundRect,0.250000X-0.350000X-0.450000X0.350000X-0.450000X0.350000X0.450000X-0.350000X0.450000X0*%
%ADD14RoundRect,0.250000X-0.450000X0.350000X-0.450000X-0.350000X0.450000X-0.350000X0.450000X0.350000X0*%
%ADD15RoundRect,0.225000X0.225000X0.250000X-0.225000X0.250000X-0.225000X-0.250000X0.225000X-0.250000X0*%
%ADD16RoundRect,0.225000X-0.225000X-0.250000X0.225000X-0.250000X0.225000X0.250000X-0.225000X0.250000X0*%
%ADD17RoundRect,0.225000X0.250000X-0.225000X0.250000X0.225000X-0.250000X0.225000X-0.250000X-0.225000X0*%
%ADD18RoundRect,0.225000X-0.250000X0.225000X-0.250000X-0.225000X0.250000X-0.225000X0.250000X0.225000X0*%
G04 APERTURE END LIST*
D10*
%TO.C,U3*%
X146449000Y-112903000D03*
X146449000Y-114173000D03*
X146449000Y-115443000D03*
X146449000Y-116713000D03*
X151399000Y-116713000D03*
X151399000Y-115443000D03*
X151399000Y-114173000D03*
X151399000Y-112903000D03*
%TD*%
%TO.C,U2*%
X148924000Y-99187000D03*
X148924000Y-100457000D03*
X148924000Y-101727000D03*
X148924000Y-102997000D03*
X143974000Y-102997000D03*
X143974000Y-101727000D03*
X143974000Y-100457000D03*
X143974000Y-99187000D03*
%TD*%
D11*
%TO.C,R10*%
X139780000Y-117348000D03*
X139780000Y-115348000D03*
%TD*%
D12*
%TO.C,R9*%
X149859000Y-109601000D03*
X147859000Y-109601000D03*
%TD*%
%TO.C,R8*%
X131144000Y-103124000D03*
X129144000Y-103124000D03*
%TD*%
%TO.C,R7*%
X136208000Y-103124000D03*
X134208000Y-103124000D03*
%TD*%
D13*
%TO.C,R6*%
X138764000Y-107696000D03*
X140764000Y-107696000D03*
%TD*%
D14*
%TO.C,R5*%
X97028000Y-107156000D03*
X97028000Y-105156000D03*
%TD*%
%TO.C,R4*%
X88392000Y-108188000D03*
X88392000Y-106188000D03*
%TD*%
%TO.C,R3*%
X77724000Y-110712000D03*
X77724000Y-108712000D03*
%TD*%
D11*
%TO.C,R2*%
X77724000Y-98060000D03*
X77724000Y-100060000D03*
%TD*%
D14*
%TO.C,R1*%
X77724000Y-105648000D03*
X77724000Y-103648000D03*
%TD*%
D15*
%TO.C,C18*%
X153470000Y-109220000D03*
X155020000Y-109220000D03*
%TD*%
D16*
%TO.C,C17*%
X149699000Y-119380000D03*
X148149000Y-119380000D03*
%TD*%
D15*
%TO.C,C16*%
X127482000Y-111760000D03*
X129032000Y-111760000D03*
%TD*%
%TO.C,C15*%
X127482000Y-113792000D03*
X129032000Y-113792000D03*
%TD*%
%TO.C,C14*%
X129299000Y-116840000D03*
X127749000Y-116840000D03*
%TD*%
%TO.C,C13*%
X127990000Y-119888000D03*
X129540000Y-119888000D03*
%TD*%
%TO.C,C12*%
X129540000Y-122936000D03*
X127990000Y-122936000D03*
%TD*%
D16*
%TO.C,C11*%
X147400000Y-93980000D03*
X145850000Y-93980000D03*
%TD*%
D15*
%TO.C,C10*%
X131242000Y-88392000D03*
X129692000Y-88392000D03*
%TD*%
%TO.C,C9*%
X131331000Y-90932000D03*
X129781000Y-90932000D03*
%TD*%
%TO.C,C8*%
X131064000Y-93472000D03*
X129514000Y-93472000D03*
%TD*%
%TO.C,C7*%
X136491000Y-107696000D03*
X134941000Y-107696000D03*
%TD*%
%TO.C,C6*%
X129603000Y-98552000D03*
X131153000Y-98552000D03*
%TD*%
D16*
%TO.C,C5*%
X101600000Y-107188000D03*
X100050000Y-107188000D03*
%TD*%
%TO.C,C4*%
X101626000Y-110236000D03*
X100076000Y-110236000D03*
%TD*%
D17*
%TO.C,C3*%
X97028000Y-110477000D03*
X97028000Y-112027000D03*
%TD*%
D18*
%TO.C,C2*%
X86360000Y-122187000D03*
X86360000Y-120637000D03*
%TD*%
D15*
%TO.C,C1*%
X79997000Y-105664000D03*
X81547000Y-105664000D03*
%TD*%
M02*
